[
    {
        "type": 2,
        "title": "Ark",
        "description": "Ark server custom built from cm2network/steamcmd",
        "note": "Ark server custom built from cm2network/steamcmd",
        "categories": ["game","ark"],
        "platform": "linux",
        "logo": "https://gamepedia.cursecdn.com/arksurvivalevolved_gamepedia/thumb/2/24/ARK.png/291px-ARK.png?version=e0fa8b36d69f7245340f1b5e0dc6acd7",
        "repository": {
            "url": "https://gitlab.com/Grumpy-Leopard/ztdocker",
            "stackfile": "stacks/grumpyleopard_ztdocker-ark.yml"
        },
        "env": [
            {
                "name": "SESSIONNAME",
                "label": "Server Name",
                "description": "This is what the server will appear as inside the game client - If this includes spaces, it must be surrounded with quotes",
                "default": "\"My Ark Server\""
            },
            {
                "name": "SERVERADMINPASSWORD",
                "label": "Server Admin Password",
                "description": "Sets the server administrator password used to elevate ingame - If this includes spaces, it must be surrounded with quotes",
                "default": "YouShouldChangeThisWhenDeploying"
            },
            {
                "name": "MAXPLAYERS",
                "label": "Max Players",
                "description": "",
                "default": "15"
            }
        ]
    },
    {
        "type": 2,
        "title": "Factorio",
        "description": "Factorio server based on didstopia/factorio-server",
        "note": "Factorio server based on didstopia/factorio-server",
        "categories": ["game","factorio"],
        "platform": "linux",
        "logo": "https://factorio.com/static/img/factorio-wheel.png",
        "repository": {
            "url": "https://gitlab.com/Grumpy-Leopard/ztdocker",
            "stackfile": "stacks/didstopia_factorio-server.yml"
        },
        "env": [
            {
                "name": "FACTORIO_WORLD_NAME",
                "label": "World file name",
                "description": "Sets the zip file name of the world save",
                "default": "docker"
            },
            {
                "name": "FACTORIO_SERVER_SETTINGS",
                "label": "Server settings file",
                "description": "If set, should be located somewhere under /factorio and uploaded to the volume",
                "default": ""
            },
            {
                "name": "FACTORIO_VERSION",
                "label": "Version",
                "description": "Version number, or 'experimental' or 'stable'",
                "default": "stable"
            }
        ]
    }
]